{
  "rules": {
    "class-name": true,
    "comment-format": [
      true,
      "check-space"
    ],
    "indent": [
      true,
      "spaces"
    ],
    "no-duplicate-variable": true,
    "no-eval": true,
    "no-internal-module": true,
    "no-trailing-whitespace": true,
    "no-unsafe-finally": true,
    "no-var-keyword": true,
    "one-line": [
      true,
      "check-open-brace",
      "check-whitespace"
    ],
    "quotemark": [
      true,
      "single",
      "jsx-double"
    ],
    "semicolon": [
      true,
      "ignore-bound-class-methods"
    ],
    "triple-equals": [
      true,
      "allow-null-check"
    ],
//    "typedef-whitespace": [
    //      true,
    //      {
    //        "call-signature": "space",
    //        "index-signature": "space",
    //        "parameter": "space",
    //        "property-declaration": "space",
    //        "variable-declaration": "space"
    //      }
    //    ],
    "variable-name": [
      true,
      "ban-keywords"
    ],
    "whitespace": [
      true,
      "check-branch",
      "check-decl",
      "check-operator",
      "check-separator",
      "check-type"
    ]
  }
}